
<font>
    <info face="HelveticaNeueLTStd-Cn" size="20" bold="0" italic="0" chasrset="" unicode="0" stretchH="100" smooth="1" aa="1" padding="0,0,0,0" spacing="2,2"/>
    <common lineHeight="24" base="14" scaleW="256" scaleH="128" pages="1" packed="0"/>
    <pages>
        <page id="0" file="HelvNeueLTDStd_57Cond_20.png"/>
    </pages>
    <chars count="104">
        <char id="36" x="2" y="3" width="10" height="19" xoffset="0" yoffset="-3" xadvance="10" page="0" chnl="0" letter="$"/>
        <char id="200" x="14" y="3" width="9" height="18" xoffset="1" yoffset="-4" xadvance="9" page="0" chnl="0" letter="È"/>
        <char id="201" x="25" y="3" width="9" height="18" xoffset="1" yoffset="-4" xadvance="9" page="0" chnl="0" letter="É"/>
        <char id="123" x="36" y="2" width="7" height="18" xoffset="0" yoffset="-2" xadvance="5" page="0" chnl="0" letter="{"/>
        <char id="125" x="45" y="2" width="7" height="18" xoffset="0" yoffset="-2" xadvance="5" page="0" chnl="0" letter="}"/>
        <char id="106" x="54" y="3" width="5" height="18" xoffset="-0" yoffset="0" xadvance="4" page="0" chnl="0" letter="j"/>
        <char id="91" x="61" y="3" width="5" height="18" xoffset="2" yoffset="0" xadvance="5" page="0" chnl="0" letter="["/>
        <char id="93" x="68" y="3" width="5" height="18" xoffset="0" yoffset="0" xadvance="5" page="0" chnl="0" letter="]"/>
        <char id="41" x="75" y="3" width="4" height="18" xoffset="0" yoffset="0" xadvance="5" page="0" chnl="0" letter=")"/>
        <char id="40" x="81" y="3" width="4" height="18" xoffset="1" yoffset="0" xadvance="5" page="0" chnl="0" letter="("/>
        <char id="81" x="87" y="3" width="11" height="17" xoffset="1" yoffset="-2" xadvance="11" page="0" chnl="0" letter="Q"/>
        <char id="232" x="100" y="3" width="9" height="17" xoffset="1" yoffset="-3" xadvance="9" page="0" chnl="0" letter="è"/>
        <char id="233" x="111" y="3" width="9" height="17" xoffset="1" yoffset="-3" xadvance="9" page="0" chnl="0" letter="é"/>
        <char id="37" x="122" y="3" width="15" height="16" xoffset="1" yoffset="-2" xadvance="15" page="0" chnl="0" letter="%"/>
        <char id="87" x="139" y="3" width="15" height="16" xoffset="0" yoffset="-2" xadvance="14" page="0" chnl="0" letter="W"/>
        <char id="77" x="156" y="3" width="13" height="16" xoffset="1" yoffset="-2" xadvance="14" page="0" chnl="0" letter="M"/>
        <char id="38" x="171" y="3" width="12" height="16" xoffset="0" yoffset="-2" xadvance="11" page="0" chnl="0" letter="&amp;"/>
        <char id="65" x="185" y="3" width="12" height="16" xoffset="-0" yoffset="-2" xadvance="10" page="0" chnl="0" letter="A"/>
        <char id="89" x="199" y="3" width="11" height="16" xoffset="-0" yoffset="-2" xadvance="9" page="0" chnl="0" letter="Y"/>
        <char id="86" x="212" y="3" width="11" height="16" xoffset="-0" yoffset="-2" xadvance="9" page="0" chnl="0" letter="V"/>
        <char id="88" x="225" y="3" width="11" height="16" xoffset="0" yoffset="-2" xadvance="10" page="0" chnl="0" letter="X"/>
        <char id="85" x="238" y="3" width="10" height="16" xoffset="1" yoffset="-2" xadvance="10" page="0" chnl="0" letter="U"/>
        <char id="75" x="2" y="24" width="10" height="16" xoffset="1" yoffset="-2" xadvance="10" page="0" chnl="0" letter="K"/>
        <char id="82" x="14" y="24" width="10" height="16" xoffset="1" yoffset="-2" xadvance="10" page="0" chnl="0" letter="R"/>
        <char id="66" x="26" y="24" width="10" height="16" xoffset="1" yoffset="-2" xadvance="10" page="0" chnl="0" letter="B"/>
        <char id="72" x="38" y="24" width="10" height="16" xoffset="1" yoffset="-2" xadvance="11" page="0" chnl="0" letter="H"/>
        <char id="52" x="50" y="24" width="10" height="16" xoffset="1" yoffset="-2" xadvance="10" page="0" chnl="0" letter="4"/>
        <char id="90" x="62" y="24" width="10" height="16" xoffset="0" yoffset="-2" xadvance="9" page="0" chnl="0" letter="Z"/>
        <char id="54" x="74" y="24" width="9" height="16" xoffset="1" yoffset="-2" xadvance="10" page="0" chnl="0" letter="6"/>
        <char id="56" x="85" y="24" width="9" height="16" xoffset="1" yoffset="-2" xadvance="10" page="0" chnl="0" letter="8"/>
        <char id="57" x="96" y="24" width="9" height="16" xoffset="1" yoffset="-2" xadvance="10" page="0" chnl="0" letter="9"/>
        <char id="48" x="107" y="24" width="9" height="16" xoffset="1" yoffset="-2" xadvance="10" page="0" chnl="0" letter="0"/>
        <char id="98" x="118" y="24" width="9" height="16" xoffset="1" yoffset="-2" xadvance="9" page="0" chnl="0" letter="b"/>
        <char id="51" x="129" y="24" width="9" height="16" xoffset="1" yoffset="-2" xadvance="10" page="0" chnl="0" letter="3"/>
        <char id="112" x="140" y="24" width="9" height="16" xoffset="1" yoffset="1" xadvance="9" page="0" chnl="0" letter="p"/>
        <char id="63" x="151" y="24" width="9" height="16" xoffset="1" yoffset="-2" xadvance="9" page="0" chnl="0" letter="?"/>
        <char id="103" x="162" y="24" width="9" height="16" xoffset="1" yoffset="2" xadvance="9" page="0" chnl="0" letter="g"/>
        <char id="100" x="173" y="24" width="9" height="16" xoffset="1" yoffset="-2" xadvance="9" page="0" chnl="0" letter="d"/>
        <char id="113" x="184" y="24" width="9" height="16" xoffset="1" yoffset="2" xadvance="9" page="0" chnl="0" letter="q"/>
        <char id="78" x="195" y="24" width="9" height="16" xoffset="1" yoffset="-2" xadvance="11" page="0" chnl="0" letter="N"/>
        <char id="84" x="206" y="24" width="9" height="16" xoffset="0" yoffset="-2" xadvance="9" page="0" chnl="0" letter="T"/>
        <char id="68" x="217" y="24" width="9" height="16" xoffset="1" yoffset="-2" xadvance="11" page="0" chnl="0" letter="D"/>
        <char id="70" x="228" y="24" width="9" height="16" xoffset="1" yoffset="-2" xadvance="9" page="0" chnl="0" letter="F"/>
        <char id="50" x="239" y="24" width="9" height="16" xoffset="1" yoffset="-2" xadvance="10" page="0" chnl="0" letter="2"/>
        <char id="76" x="2" y="41" width="9" height="16" xoffset="1" yoffset="-3" xadvance="9" page="0" chnl="0" letter="L"/>
        <char id="69" x="13" y="41" width="9" height="16" xoffset="1" yoffset="-3" xadvance="9" page="0" chnl="0" letter="E"/>
        <char id="80" x="24" y="41" width="9" height="16" xoffset="1" yoffset="-3" xadvance="10" page="0" chnl="0" letter="P"/>
        <char id="104" x="35" y="41" width="9" height="16" xoffset="1" yoffset="-3" xadvance="9" page="0" chnl="0" letter="h"/>
        <char id="74" x="46" y="41" width="8" height="16" xoffset="0" yoffset="-3" xadvance="9" page="0" chnl="0" letter="J"/>
        <char id="121" x="56" y="41" width="8" height="16" xoffset="0" yoffset="1" xadvance="8" page="0" chnl="0" letter="y"/>
        <char id="53" x="66" y="41" width="8" height="16" xoffset="1" yoffset="-3" xadvance="10" page="0" chnl="0" letter="5"/>
        <char id="107" x="76" y="41" width="8" height="16" xoffset="1" yoffset="-3" xadvance="9" page="0" chnl="0" letter="k"/>
        <char id="102" x="86" y="41" width="7" height="16" xoffset="0" yoffset="-3" xadvance="5" page="0" chnl="0" letter="f"/>
        <char id="49" x="95" y="41" width="6" height="16" xoffset="1" yoffset="-3" xadvance="10" page="0" chnl="0" letter="1"/>
        <char id="105" x="103" y="41" width="3" height="16" xoffset="1" yoffset="-3" xadvance="4" page="0" chnl="0" letter="i"/>
        <char id="108" x="108" y="41" width="3" height="16" xoffset="1" yoffset="-3" xadvance="4" page="0" chnl="0" letter="l"/>
        <char id="33" x="113" y="41" width="2" height="16" xoffset="2" yoffset="-3" xadvance="5" page="0" chnl="0" letter="!"/>
        <char id="73" x="117" y="41" width="2" height="16" xoffset="1" yoffset="-3" xadvance="4" page="0" chnl="0" letter="I"/>
        <char id="64" x="121" y="41" width="16" height="15" xoffset="1" yoffset="-2" xadvance="16" page="0" chnl="0" letter="@"/>
        <char id="79" x="139" y="41" width="11" height="15" xoffset="1" yoffset="-2" xadvance="11" page="0" chnl="0" letter="O"/>
        <char id="67" x="152" y="41" width="10" height="15" xoffset="1" yoffset="-2" xadvance="10" page="0" chnl="0" letter="C"/>
        <char id="83" x="164" y="41" width="10" height="15" xoffset="1" yoffset="-2" xadvance="10" page="0" chnl="0" letter="S"/>
        <char id="71" x="176" y="41" width="9" height="15" xoffset="1" yoffset="-2" xadvance="11" page="0" chnl="0" letter="G"/>
        <char id="47" x="187" y="41" width="6" height="15" xoffset="-0" yoffset="-2" xadvance="6" page="0" chnl="0" letter="/"/>
        <char id="92" x="195" y="41" width="6" height="15" xoffset="-0" yoffset="-2" xadvance="6" page="0" chnl="0" letter="\"/>
        <char id="124" x="203" y="41" width="3" height="15" xoffset="2" yoffset="-2" xadvance="4" page="0" chnl="0" letter="|"/>
        <char id="59" x="208" y="41" width="3" height="15" xoffset="1" yoffset="1" xadvance="5" page="0" chnl="0" letter=";"/>
        <char id="35" x="213" y="41" width="10" height="14" xoffset="0" yoffset="-1" xadvance="10" page="0" chnl="0" letter="#"/>
        <char id="55" x="225" y="41" width="9" height="14" xoffset="1" yoffset="-1" xadvance="10" page="0" chnl="0" letter="7"/>
        <char id="116" x="236" y="41" width="7" height="14" xoffset="0" yoffset="-1" xadvance="5" page="0" chnl="0" letter="t"/>
        <char id="101" x="245" y="41" width="9" height="13" xoffset="1" yoffset="0" xadvance="9" page="0" chnl="0" letter="e"/>
        <char id="97" x="2" y="59" width="9" height="13" xoffset="1" yoffset="0" xadvance="9" page="0" chnl="0" letter="a"/>
        <char id="111" x="13" y="59" width="9" height="13" xoffset="1" yoffset="0" xadvance="9" page="0" chnl="0" letter="o"/>
        <char id="115" x="24" y="59" width="9" height="13" xoffset="0" yoffset="0" xadvance="8" page="0" chnl="0" letter="s"/>
        <char id="99" x="35" y="59" width="8" height="13" xoffset="1" yoffset="0" xadvance="9" page="0" chnl="0" letter="c"/>
        <char id="119" x="45" y="59" width="14" height="12" xoffset="0" yoffset="1" xadvance="13" page="0" chnl="0" letter="w"/>
        <char id="60" x="61" y="59" width="12" height="12" xoffset="1" yoffset="1" xadvance="12" page="0" chnl="0" letter="&lt;"/>
        <char id="62" x="75" y="59" width="12" height="12" xoffset="1" yoffset="1" xadvance="12" page="0" chnl="0" letter=">"/>
        <char id="43" x="89" y="59" width="12" height="12" xoffset="1" yoffset="1" xadvance="12" page="0" chnl="0" letter="+"/>
        <char id="118" x="103" y="59" width="9" height="12" xoffset="0" yoffset="1" xadvance="8" page="0" chnl="0" letter="v"/>
        <char id="120" x="114" y="59" width="8" height="12" xoffset="0" yoffset="1" xadvance="8" page="0" chnl="0" letter="x"/>
        <char id="122" x="124" y="59" width="8" height="12" xoffset="1" yoffset="1" xadvance="8" page="0" chnl="0" letter="z"/>
        <char id="58" x="134" y="59" width="2" height="12" xoffset="1" yoffset="1" xadvance="5" page="0" chnl="0" letter=":"/>
        <char id="109" x="138" y="59" width="13" height="11" xoffset="1" yoffset="2" xadvance="14" page="0" chnl="0" letter="m"/>
        <char id="117" x="153" y="59" width="9" height="11" xoffset="1" yoffset="2" xadvance="9" page="0" chnl="0" letter="u"/>
        <char id="110" x="164" y="59" width="9" height="11" xoffset="1" yoffset="2" xadvance="9" page="0" chnl="0" letter="n"/>
        <char id="114" x="175" y="59" width="5" height="11" xoffset="1" yoffset="2" xadvance="6" page="0" chnl="0" letter="r"/>
        <char id="94" x="182" y="59" width="11" height="10" xoffset="1" yoffset="-0" xadvance="12" page="0" chnl="0" letter="^"/>
        <char id="61" x="195" y="59" width="12" height="7" xoffset="1" yoffset="4" xadvance="12" page="0" chnl="0" letter="="/>
        <char id="42" x="209" y="59" width="8" height="7" xoffset="0" yoffset="-0" xadvance="7" page="0" chnl="0" letter="*"/>
        <char id="34" x="219" y="59" width="6" height="7" xoffset="2" yoffset="-1" xadvance="8" page="0" chnl="0" letter="&quot;"/>
        <char id="8220" x="227" y="59" width="6" height="7" xoffset="2" yoffset="-1" xadvance="8" page="0" chnl="0" letter="“"/>
        <char id="8221" x="235" y="59" width="6" height="7" xoffset="2" yoffset="-1" xadvance="8" page="0" chnl="0" letter="”"/>
        <char id="44" x="243" y="59" width="3" height="7" xoffset="1" yoffset="9" xadvance="5" page="0" chnl="0" letter=","/>
        <char id="39" x="248" y="59" width="3" height="7" xoffset="2" yoffset="-1" xadvance="5" page="0" chnl="0" letter="'"/>
        <char id="8217" x="2" y="75" width="3" height="7" xoffset="1" yoffset="-2" xadvance="5" page="0" chnl="0" letter="’"/>
        <char id="126" x="7" y="75" width="10" height="5" xoffset="1" yoffset="6" xadvance="12" page="0" chnl="0" letter="~"/>
        <char id="46" x="19" y="75" width="2" height="4" xoffset="1" yoffset="10" xadvance="5" page="0" chnl="0" letter="."/>
        <char id="8212" x="23" y="75" width="20" height="3" xoffset="0" yoffset="6" xadvance="20" page="0" chnl="0" letter="—"/>
        <char id="8211" x="45" y="75" width="10" height="3" xoffset="0" yoffset="6" xadvance="10" page="0" chnl="0" letter="–"/>
        <char id="45" x="57" y="75" width="5" height="3" xoffset="1" yoffset="6" xadvance="7" page="0" chnl="0" letter="-"/>
        <char id="96" x="64" y="75" width="5" height="3" xoffset="-0" yoffset="-1" xadvance="4" page="0" chnl="0" letter="`"/>
        <char id="95" x="71" y="74" width="10" height="2" xoffset="0" yoffset="13" xadvance="10" page="0" chnl="0" letter="_"/>
        <char id="32" x="83" y="75" width="0" height="0" xoffset="5" yoffset="34" xadvance="5" page="0" chnl="0" letter=" "/>
    </chars>
</font>