
<font>
    <info face="HelveticaNeueLTStd-Bd" size="39" bold="0" italic="0" chasrset="" unicode="0" stretchH="100" smooth="1" aa="1" padding="0,0,0,0" spacing="2,2"/>
    <common lineHeight="46" base="28" scaleW="512" scaleH="256" pages="1" packed="0"/>
    <pages>
        <page id="0" file="HelvNeueLTDStd_75Bold_38.png"/>
    </pages>
    <chars count="108">
        <char id="124" x="2" y="3" width="6" height="39" xoffset="2" yoffset="-3" xadvance="9" page="0" chnl="0" letter="|"/>
        <char id="36" x="10" y="3" width="23" height="37" xoffset="-0" yoffset="-5" xadvance="22" page="0" chnl="0" letter="$"/>
        <char id="123" x="35" y="3" width="15" height="37" xoffset="-0" yoffset="-2" xadvance="13" page="0" chnl="0" letter="{"/>
        <char id="125" x="52" y="3" width="15" height="37" xoffset="0" yoffset="-2" xadvance="13" page="0" chnl="0" letter="}"/>
        <char id="91" x="69" y="3" width="12" height="37" xoffset="3" yoffset="-2" xadvance="13" page="0" chnl="0" letter="["/>
        <char id="93" x="83" y="3" width="12" height="37" xoffset="0" yoffset="-2" xadvance="13" page="0" chnl="0" letter="]"/>
        <char id="41" x="97" y="3" width="10" height="37" xoffset="-0" yoffset="-2" xadvance="12" page="0" chnl="0" letter=")"/>
        <char id="40" x="109" y="3" width="10" height="37" xoffset="2" yoffset="-2" xadvance="12" page="0" chnl="0" letter="("/>
        <char id="200" x="121" y="3" width="23" height="36" xoffset="3" yoffset="-8" xadvance="25" page="0" chnl="0" letter="È"/>
        <char id="201" x="146" y="3" width="23" height="36" xoffset="3" yoffset="-8" xadvance="25" page="0" chnl="0" letter="É"/>
        <char id="106" x="171" y="3" width="10" height="35" xoffset="-1" yoffset="-0" xadvance="11" page="0" chnl="0" letter="j"/>
        <char id="81" x="183" y="3" width="28" height="33" xoffset="1" yoffset="-2" xadvance="30" page="0" chnl="0" letter="Q"/>
        <char id="37" x="213" y="3" width="35" height="31" xoffset="3" yoffset="-2" xadvance="39" page="0" chnl="0" letter="%"/>
        <char id="174" x="250" y="3" width="31" height="31" xoffset="1" yoffset="-2" xadvance="31" page="0" chnl="0" letter="®"/>
        <char id="64" x="283" y="3" width="30" height="31" xoffset="1" yoffset="-2" xadvance="31" page="0" chnl="0" letter="@"/>
        <char id="79" x="315" y="3" width="28" height="31" xoffset="1" yoffset="-2" xadvance="30" page="0" chnl="0" letter="O"/>
        <char id="71" x="345" y="3" width="27" height="31" xoffset="1" yoffset="-2" xadvance="30" page="0" chnl="0" letter="G"/>
        <char id="67" x="374" y="3" width="27" height="31" xoffset="1" yoffset="-2" xadvance="29" page="0" chnl="0" letter="C"/>
        <char id="83" x="403" y="3" width="25" height="31" xoffset="1" yoffset="-2" xadvance="25" page="0" chnl="0" letter="S"/>
        <char id="92" x="430" y="3" width="17" height="31" xoffset="-0" yoffset="-2" xadvance="14" page="0" chnl="0" letter="\"/>
        <char id="47" x="449" y="3" width="17" height="31" xoffset="-0" yoffset="-2" xadvance="14" page="0" chnl="0" letter="/"/>
        <char id="38" x="468" y="3" width="26" height="30" xoffset="1" yoffset="-1" xadvance="27" page="0" chnl="0" letter="&amp;"/>
        <char id="85" x="2" y="44" width="25" height="30" xoffset="3" yoffset="-1" xadvance="29" page="0" chnl="0" letter="U"/>
        <char id="232" x="29" y="44" width="22" height="30" xoffset="1" yoffset="-1" xadvance="22" page="0" chnl="0" letter="è"/>
        <char id="233" x="53" y="44" width="22" height="30" xoffset="1" yoffset="-1" xadvance="22" page="0" chnl="0" letter="é"/>
        <char id="98" x="77" y="44" width="22" height="30" xoffset="2" yoffset="-1" xadvance="24" page="0" chnl="0" letter="b"/>
        <char id="100" x="101" y="44" width="22" height="30" xoffset="1" yoffset="-1" xadvance="24" page="0" chnl="0" letter="d"/>
        <char id="56" x="125" y="44" width="22" height="30" xoffset="1" yoffset="-1" xadvance="22" page="0" chnl="0" letter="8"/>
        <char id="51" x="149" y="44" width="21" height="30" xoffset="1" yoffset="-1" xadvance="22" page="0" chnl="0" letter="3"/>
        <char id="103" x="172" y="44" width="21" height="30" xoffset="1" yoffset="6" xadvance="24" page="0" chnl="0" letter="g"/>
        <char id="54" x="195" y="44" width="21" height="30" xoffset="1" yoffset="-1" xadvance="22" page="0" chnl="0" letter="6"/>
        <char id="57" x="218" y="44" width="21" height="30" xoffset="1" yoffset="-1" xadvance="22" page="0" chnl="0" letter="9"/>
        <char id="48" x="241" y="44" width="21" height="30" xoffset="1" yoffset="-1" xadvance="22" page="0" chnl="0" letter="0"/>
        <char id="63" x="264" y="44" width="21" height="30" xoffset="1" yoffset="-2" xadvance="22" page="0" chnl="0" letter="?"/>
        <char id="74" x="287" y="44" width="20" height="30" xoffset="1" yoffset="-1" xadvance="22" page="0" chnl="0" letter="J"/>
        <char id="112" x="309" y="44" width="22" height="29" xoffset="2" yoffset="6" xadvance="24" page="0" chnl="0" letter="p"/>
        <char id="113" x="333" y="44" width="22" height="29" xoffset="1" yoffset="6" xadvance="24" page="0" chnl="0" letter="q"/>
        <char id="121" x="357" y="44" width="22" height="29" xoffset="-0" yoffset="6" xadvance="20" page="0" chnl="0" letter="y"/>
        <char id="52" x="381" y="44" width="22" height="29" xoffset="1" yoffset="-1" xadvance="22" page="0" chnl="0" letter="4"/>
        <char id="35" x="405" y="44" width="21" height="29" xoffset="1" yoffset="-1" xadvance="22" page="0" chnl="0" letter="#"/>
        <char id="55" x="428" y="44" width="20" height="29" xoffset="2" yoffset="-1" xadvance="22" page="0" chnl="0" letter="7"/>
        <char id="49" x="450" y="44" width="13" height="29" xoffset="3" yoffset="-1" xadvance="22" page="0" chnl="0" letter="1"/>
        <char id="87" x="465" y="44" width="38" height="28" xoffset="0" yoffset="-0" xadvance="37" page="0" chnl="0" letter="W"/>
        <char id="77" x="2" y="76" width="30" height="28" xoffset="3" yoffset="-0" xadvance="35" page="0" chnl="0" letter="M"/>
        <char id="65" x="34" y="76" width="29" height="28" xoffset="-0" yoffset="-0" xadvance="27" page="0" chnl="0" letter="A"/>
        <char id="89" x="65" y="76" width="28" height="28" xoffset="-0" yoffset="-0" xadvance="26" page="0" chnl="0" letter="Y"/>
        <char id="88" x="95" y="76" width="28" height="28" xoffset="-0" yoffset="-0" xadvance="26" page="0" chnl="0" letter="X"/>
        <char id="75" x="125" y="76" width="27" height="28" xoffset="3" yoffset="-0" xadvance="28" page="0" chnl="0" letter="K"/>
        <char id="86" x="154" y="76" width="27" height="28" xoffset="-0" yoffset="-0" xadvance="25" page="0" chnl="0" letter="V"/>
        <char id="68" x="183" y="76" width="26" height="28" xoffset="3" yoffset="-0" xadvance="29" page="0" chnl="0" letter="D"/>
        <char id="82" x="211" y="76" width="25" height="28" xoffset="3" yoffset="-0" xadvance="28" page="0" chnl="0" letter="R"/>
        <char id="66" x="238" y="76" width="25" height="28" xoffset="3" yoffset="-0" xadvance="27" page="0" chnl="0" letter="B"/>
        <char id="72" x="265" y="76" width="25" height="28" xoffset="3" yoffset="-0" xadvance="29" page="0" chnl="0" letter="H"/>
        <char id="78" x="292" y="76" width="25" height="28" xoffset="3" yoffset="-0" xadvance="29" page="0" chnl="0" letter="N"/>
        <char id="90" x="319" y="76" width="25" height="28" xoffset="1" yoffset="-0" xadvance="25" page="0" chnl="0" letter="Z"/>
        <char id="84" x="346" y="76" width="24" height="28" xoffset="1" yoffset="-0" xadvance="24" page="0" chnl="0" letter="T"/>
        <char id="80" x="372" y="76" width="24" height="28" xoffset="3" yoffset="-0" xadvance="26" page="0" chnl="0" letter="P"/>
        <char id="69" x="398" y="76" width="23" height="28" xoffset="3" yoffset="-0" xadvance="25" page="0" chnl="0" letter="E"/>
        <char id="53" x="423" y="76" width="21" height="28" xoffset="1" yoffset="1" xadvance="22" page="0" chnl="0" letter="5"/>
        <char id="50" x="446" y="76" width="21" height="28" xoffset="1" yoffset="-0" xadvance="22" page="0" chnl="0" letter="2"/>
        <char id="70" x="469" y="76" width="21" height="28" xoffset="3" yoffset="-0" xadvance="23" page="0" chnl="0" letter="F"/>
        <char id="76" x="2" y="106" width="21" height="28" xoffset="3" yoffset="-0" xadvance="23" page="0" chnl="0" letter="L"/>
        <char id="107" x="25" y="106" width="20" height="28" xoffset="3" yoffset="-0" xadvance="22" page="0" chnl="0" letter="k"/>
        <char id="104" x="47" y="106" width="20" height="28" xoffset="2" yoffset="-0" xadvance="23" page="0" chnl="0" letter="h"/>
        <char id="116" x="69" y="106" width="14" height="28" xoffset="0" yoffset="-0" xadvance="14" page="0" chnl="0" letter="t"/>
        <char id="102" x="85" y="106" width="13" height="28" xoffset="0" yoffset="-0" xadvance="13" page="0" chnl="0" letter="f"/>
        <char id="73" x="100" y="106" width="8" height="28" xoffset="3" yoffset="-0" xadvance="12" page="0" chnl="0" letter="I"/>
        <char id="33" x="110" y="106" width="8" height="28" xoffset="2" yoffset="-0" xadvance="11" page="0" chnl="0" letter="!"/>
        <char id="59" x="120" y="106" width="8" height="28" xoffset="2" yoffset="6" xadvance="11" page="0" chnl="0" letter=";"/>
        <char id="105" x="130" y="106" width="7" height="28" xoffset="2" yoffset="-0" xadvance="10" page="0" chnl="0" letter="i"/>
        <char id="108" x="139" y="106" width="7" height="28" xoffset="2" yoffset="-0" xadvance="10" page="0" chnl="0" letter="l"/>
        <char id="111" x="148" y="106" width="22" height="23" xoffset="1" yoffset="6" xadvance="24" page="0" chnl="0" letter="o"/>
        <char id="101" x="172" y="106" width="22" height="23" xoffset="1" yoffset="6" xadvance="22" page="0" chnl="0" letter="e"/>
        <char id="97" x="196" y="106" width="21" height="23" xoffset="1" yoffset="6" xadvance="22" page="0" chnl="0" letter="a"/>
        <char id="99" x="219" y="106" width="20" height="23" xoffset="1" yoffset="6" xadvance="22" page="0" chnl="0" letter="c"/>
        <char id="115" x="241" y="106" width="19" height="23" xoffset="1" yoffset="6" xadvance="21" page="0" chnl="0" letter="s"/>
        <char id="119" x="262" y="106" width="33" height="22" xoffset="0" yoffset="6" xadvance="32" page="0" chnl="0" letter="w"/>
        <char id="109" x="297" y="106" width="32" height="22" xoffset="2" yoffset="6" xadvance="35" page="0" chnl="0" letter="m"/>
        <char id="120" x="331" y="106" width="21" height="22" xoffset="0" yoffset="6" xadvance="21" page="0" chnl="0" letter="x"/>
        <char id="60" x="354" y="106" width="21" height="22" xoffset="2" yoffset="6" xadvance="23" page="0" chnl="0" letter="&lt;"/>
        <char id="62" x="377" y="106" width="21" height="22" xoffset="2" yoffset="6" xadvance="23" page="0" chnl="0" letter=">"/>
        <char id="110" x="400" y="106" width="20" height="22" xoffset="2" yoffset="6" xadvance="23" page="0" chnl="0" letter="n"/>
        <char id="117" x="422" y="106" width="20" height="22" xoffset="2" yoffset="7" xadvance="23" page="0" chnl="0" letter="u"/>
        <char id="118" x="444" y="106" width="20" height="22" xoffset="0" yoffset="6" xadvance="20" page="0" chnl="0" letter="v"/>
        <char id="122" x="466" y="106" width="20" height="22" xoffset="1" yoffset="6" xadvance="20" page="0" chnl="0" letter="z"/>
        <char id="114" x="488" y="106" width="14" height="22" xoffset="2" yoffset="6" xadvance="15" page="0" chnl="0" letter="r"/>
        <char id="43" x="2" y="136" width="21" height="21" xoffset="2" yoffset="7" xadvance="23" page="0" chnl="0" letter="+"/>
        <char id="58" x="25" y="136" width="8" height="21" xoffset="2" yoffset="7" xadvance="11" page="0" chnl="0" letter=":"/>
        <char id="8482" x="35" y="136" width="35" height="18" xoffset="2" yoffset="-2" xadvance="39" page="0" chnl="0" letter="™"/>
        <char id="94" x="72" y="136" width="20" height="16" xoffset="2" yoffset="-0" xadvance="23" page="0" chnl="0" letter="^"/>
        <char id="42" x="94" y="136" width="16" height="15" xoffset="1" yoffset="-1" xadvance="16" page="0" chnl="0" letter="*"/>
        <char id="8226" x="112" y="136" width="15" height="15" xoffset="3" yoffset="7" xadvance="20" page="0" chnl="0" letter="•"/>
        <char id="61" x="129" y="136" width="21" height="14" xoffset="2" yoffset="10" xadvance="23" page="0" chnl="0" letter="="/>
        <char id="34" x="152" y="136" width="13" height="14" xoffset="3" yoffset="-1" xadvance="18" page="0" chnl="0" letter="&quot;"/>
        <char id="44" x="167" y="136" width="8" height="14" xoffset="2" yoffset="20" xadvance="11" page="0" chnl="0" letter=","/>
        <char id="39" x="177" y="136" width="6" height="14" xoffset="3" yoffset="-1" xadvance="11" page="0" chnl="0" letter="'"/>
        <char id="8220" x="185" y="136" width="14" height="13" xoffset="2" yoffset="-0" xadvance="18" page="0" chnl="0" letter="“"/>
        <char id="8221" x="201" y="136" width="14" height="13" xoffset="2" yoffset="-0" xadvance="18" page="0" chnl="0" letter="”"/>
        <char id="8217" x="217" y="136" width="7" height="13" xoffset="3" yoffset="-0" xadvance="11" page="0" chnl="0" letter="’"/>
        <char id="126" x="226" y="136" width="19" height="9" xoffset="3" yoffset="13" xadvance="23" page="0" chnl="0" letter="~"/>
        <char id="8230" x="247" y="136" width="34" height="7" xoffset="3" yoffset="21" xadvance="39" page="0" chnl="0" letter="…"/>
        <char id="96" x="283" y="136" width="10" height="7" xoffset="-2" yoffset="-2" xadvance="10" page="0" chnl="0" letter="`"/>
        <char id="46" x="295" y="136" width="8" height="7" xoffset="2" yoffset="21" xadvance="11" page="0" chnl="0" letter="."/>
        <char id="8212" x="305" y="136" width="29" height="5" xoffset="5" yoffset="15" xadvance="39" page="0" chnl="0" letter="—"/>
        <char id="8211" x="336" y="136" width="21" height="5" xoffset="0" yoffset="15" xadvance="20" page="0" chnl="0" letter="–"/>
        <char id="45" x="359" y="136" width="13" height="5" xoffset="2" yoffset="15" xadvance="16" page="0" chnl="0" letter="-"/>
        <char id="95" x="374" y="136" width="21" height="2" xoffset="0" yoffset="31" xadvance="20" page="0" chnl="0" letter="_"/>
        <char id="32" x="397" y="136" width="0" height="0" xoffset="11" yoffset="48" xadvance="11" page="0" chnl="0" letter=" "/>
    </chars>
</font>