
<font>
    <info face="HelveticaNeueLTStd-BdCn" size="18" bold="0" italic="0" chasrset="" unicode="0" stretchH="100" smooth="1" aa="1" padding="0,0,0,0" spacing="2,2"/>
    <common lineHeight="21" base="13" scaleW="256" scaleH="128" pages="1" packed="0"/>
    <pages>
        <page id="0" file="HelvNeueLTDStd_77BoldCond_18.png"/>
    </pages>
    <chars count="104">
        <char id="200" x="2" y="3" width="9" height="18" xoffset="1" yoffset="-5" xadvance="9" page="0" chnl="0" letter="È"/>
        <char id="201" x="13" y="3" width="9" height="18" xoffset="1" yoffset="-5" xadvance="9" page="0" chnl="0" letter="É"/>
        <char id="123" x="24" y="3" width="6" height="18" xoffset="1" yoffset="-2" xadvance="6" page="0" chnl="0" letter="{"/>
        <char id="125" x="32" y="3" width="6" height="18" xoffset="0" yoffset="-2" xadvance="6" page="0" chnl="0" letter="}"/>
        <char id="91" x="40" y="3" width="6" height="18" xoffset="1" yoffset="-2" xadvance="6" page="0" chnl="0" letter="["/>
        <char id="93" x="48" y="3" width="6" height="18" xoffset="0" yoffset="-2" xadvance="6" page="0" chnl="0" letter="]"/>
        <char id="41" x="56" y="3" width="6" height="18" xoffset="0" yoffset="-2" xadvance="5" page="0" chnl="0" letter=")"/>
        <char id="40" x="64" y="3" width="6" height="18" xoffset="1" yoffset="-2" xadvance="5" page="0" chnl="0" letter="("/>
        <char id="106" x="72" y="3" width="4" height="18" xoffset="-0" yoffset="-2" xadvance="4" page="0" chnl="0" letter="j"/>
        <char id="36" x="78" y="3" width="10" height="16" xoffset="0" yoffset="-1" xadvance="9" page="0" chnl="0" letter="$"/>
        <char id="81" x="90" y="3" width="10" height="16" xoffset="1" yoffset="-1" xadvance="10" page="0" chnl="0" letter="Q"/>
        <char id="37" x="102" y="3" width="14" height="15" xoffset="0" yoffset="-1" xadvance="14" page="0" chnl="0" letter="%"/>
        <char id="64" x="118" y="3" width="14" height="15" xoffset="1" yoffset="-2" xadvance="14" page="0" chnl="0" letter="@"/>
        <char id="38" x="134" y="3" width="12" height="15" xoffset="0" yoffset="-2" xadvance="11" page="0" chnl="0" letter="&amp;"/>
        <char id="79" x="148" y="3" width="10" height="15" xoffset="1" yoffset="-2" xadvance="10" page="0" chnl="0" letter="O"/>
        <char id="67" x="160" y="3" width="10" height="15" xoffset="1" yoffset="-2" xadvance="10" page="0" chnl="0" letter="C"/>
        <char id="71" x="172" y="3" width="10" height="15" xoffset="1" yoffset="-2" xadvance="10" page="0" chnl="0" letter="G"/>
        <char id="85" x="184" y="3" width="9" height="15" xoffset="1" yoffset="-2" xadvance="10" page="0" chnl="0" letter="U"/>
        <char id="83" x="195" y="3" width="9" height="15" xoffset="0" yoffset="-2" xadvance="9" page="0" chnl="0" letter="S"/>
        <char id="100" x="206" y="3" width="9" height="15" xoffset="1" yoffset="-2" xadvance="9" page="0" chnl="0" letter="d"/>
        <char id="112" x="217" y="3" width="9" height="15" xoffset="1" yoffset="1" xadvance="9" page="0" chnl="0" letter="p"/>
        <char id="103" x="228" y="3" width="9" height="15" xoffset="1" yoffset="1" xadvance="9" page="0" chnl="0" letter="g"/>
        <char id="98" x="239" y="3" width="9" height="15" xoffset="1" yoffset="-2" xadvance="9" page="0" chnl="0" letter="b"/>
        <char id="113" x="2" y="23" width="9" height="15" xoffset="1" yoffset="1" xadvance="9" page="0" chnl="0" letter="q"/>
        <char id="74" x="13" y="23" width="9" height="15" xoffset="0" yoffset="-2" xadvance="8" page="0" chnl="0" letter="J"/>
        <char id="232" x="24" y="23" width="8" height="15" xoffset="0" yoffset="-2" xadvance="8" page="0" chnl="0" letter="è"/>
        <char id="233" x="34" y="23" width="8" height="15" xoffset="0" yoffset="-2" xadvance="8" page="0" chnl="0" letter="é"/>
        <char id="47" x="44" y="23" width="7" height="15" xoffset="-0" yoffset="-2" xadvance="6" page="0" chnl="0" letter="/"/>
        <char id="92" x="53" y="23" width="7" height="15" xoffset="-0" yoffset="-2" xadvance="6" page="0" chnl="0" letter="\"/>
        <char id="102" x="62" y="23" width="7" height="15" xoffset="0" yoffset="-2" xadvance="5" page="0" chnl="0" letter="f"/>
        <char id="124" x="71" y="23" width="4" height="15" xoffset="1" yoffset="-2" xadvance="4" page="0" chnl="0" letter="|"/>
        <char id="52" x="77" y="23" width="10" height="14" xoffset="0" yoffset="-1" xadvance="9" page="0" chnl="0" letter="4"/>
        <char id="35" x="89" y="23" width="10" height="14" xoffset="0" yoffset="-1" xadvance="9" page="0" chnl="0" letter="#"/>
        <char id="50" x="101" y="23" width="9" height="14" xoffset="0" yoffset="-1" xadvance="9" page="0" chnl="0" letter="2"/>
        <char id="53" x="112" y="23" width="9" height="14" xoffset="0" yoffset="-1" xadvance="9" page="0" chnl="0" letter="5"/>
        <char id="55" x="123" y="23" width="9" height="14" xoffset="0" yoffset="-1" xadvance="9" page="0" chnl="0" letter="7"/>
        <char id="116" x="134" y="23" width="7" height="14" xoffset="0" yoffset="-1" xadvance="5" page="0" chnl="0" letter="t"/>
        <char id="49" x="143" y="23" width="6" height="14" xoffset="1" yoffset="-1" xadvance="9" page="0" chnl="0" letter="1"/>
        <char id="59" x="151" y="23" width="4" height="14" xoffset="1" yoffset="2" xadvance="4" page="0" chnl="0" letter=";"/>
        <char id="87" x="157" y="23" width="15" height="13" xoffset="0" yoffset="-0" xadvance="14" page="0" chnl="0" letter="W"/>
        <char id="77" x="174" y="23" width="13" height="13" xoffset="1" yoffset="-0" xadvance="13" page="0" chnl="0" letter="M"/>
        <char id="89" x="189" y="23" width="11" height="13" xoffset="0" yoffset="-0" xadvance="9" page="0" chnl="0" letter="Y"/>
        <char id="65" x="202" y="23" width="11" height="13" xoffset="0" yoffset="-0" xadvance="10" page="0" chnl="0" letter="A"/>
        <char id="88" x="215" y="23" width="11" height="13" xoffset="0" yoffset="-0" xadvance="10" page="0" chnl="0" letter="X"/>
        <char id="86" x="228" y="23" width="11" height="13" xoffset="0" yoffset="-0" xadvance="9" page="0" chnl="0" letter="V"/>
        <char id="84" x="241" y="23" width="10" height="13" xoffset="0" yoffset="-0" xadvance="9" page="0" chnl="0" letter="T"/>
        <char id="75" x="2" y="40" width="10" height="13" xoffset="1" yoffset="-0" xadvance="10" page="0" chnl="0" letter="K"/>
        <char id="72" x="14" y="40" width="10" height="13" xoffset="1" yoffset="-0" xadvance="10" page="0" chnl="0" letter="H"/>
        <char id="78" x="26" y="40" width="10" height="13" xoffset="1" yoffset="-0" xadvance="10" page="0" chnl="0" letter="N"/>
        <char id="68" x="38" y="40" width="10" height="13" xoffset="1" yoffset="-0" xadvance="10" page="0" chnl="0" letter="D"/>
        <char id="66" x="50" y="40" width="10" height="13" xoffset="1" yoffset="-0" xadvance="10" page="0" chnl="0" letter="B"/>
        <char id="82" x="62" y="40" width="10" height="13" xoffset="1" yoffset="-0" xadvance="10" page="0" chnl="0" letter="R"/>
        <char id="54" x="74" y="40" width="10" height="13" xoffset="0" yoffset="-0" xadvance="9" page="0" chnl="0" letter="6"/>
        <char id="57" x="86" y="40" width="10" height="13" xoffset="0" yoffset="-0" xadvance="9" page="0" chnl="0" letter="9"/>
        <char id="56" x="98" y="40" width="10" height="13" xoffset="0" yoffset="-0" xadvance="9" page="0" chnl="0" letter="8"/>
        <char id="63" x="110" y="40" width="9" height="13" xoffset="1" yoffset="-0" xadvance="9" page="0" chnl="0" letter="?"/>
        <char id="80" x="121" y="40" width="9" height="13" xoffset="1" yoffset="-0" xadvance="9" page="0" chnl="0" letter="P"/>
        <char id="70" x="132" y="40" width="9" height="13" xoffset="1" yoffset="-0" xadvance="8" page="0" chnl="0" letter="F"/>
        <char id="51" x="143" y="40" width="9" height="13" xoffset="0" yoffset="-0" xadvance="9" page="0" chnl="0" letter="3"/>
        <char id="48" x="154" y="40" width="9" height="13" xoffset="0" yoffset="-0" xadvance="9" page="0" chnl="0" letter="0"/>
        <char id="76" x="165" y="40" width="9" height="13" xoffset="1" yoffset="-0" xadvance="8" page="0" chnl="0" letter="L"/>
        <char id="107" x="176" y="40" width="9" height="13" xoffset="1" yoffset="-0" xadvance="9" page="0" chnl="0" letter="k"/>
        <char id="69" x="187" y="40" width="9" height="13" xoffset="1" yoffset="-0" xadvance="9" page="0" chnl="0" letter="E"/>
        <char id="104" x="198" y="40" width="9" height="13" xoffset="1" yoffset="-0" xadvance="9" page="0" chnl="0" letter="h"/>
        <char id="121" x="209" y="40" width="8" height="13" xoffset="0" yoffset="3" xadvance="8" page="0" chnl="0" letter="y"/>
        <char id="90" x="219" y="40" width="8" height="13" xoffset="0" yoffset="-0" xadvance="9" page="0" chnl="0" letter="Z"/>
        <char id="73" x="229" y="40" width="4" height="13" xoffset="1" yoffset="-0" xadvance="5" page="0" chnl="0" letter="I"/>
        <char id="105" x="235" y="40" width="4" height="13" xoffset="1" yoffset="-0" xadvance="4" page="0" chnl="0" letter="i"/>
        <char id="108" x="241" y="40" width="4" height="13" xoffset="1" yoffset="-0" xadvance="4" page="0" chnl="0" letter="l"/>
        <char id="33" x="247" y="40" width="4" height="13" xoffset="1" yoffset="-0" xadvance="5" page="0" chnl="0" letter="!"/>
        <char id="97" x="2" y="55" width="9" height="12" xoffset="1" yoffset="1" xadvance="9" page="0" chnl="0" letter="a"/>
        <char id="111" x="13" y="55" width="9" height="12" xoffset="1" yoffset="1" xadvance="9" page="0" chnl="0" letter="o"/>
        <char id="115" x="24" y="55" width="9" height="12" xoffset="0" yoffset="1" xadvance="8" page="0" chnl="0" letter="s"/>
        <char id="99" x="35" y="55" width="8" height="12" xoffset="0" yoffset="1" xadvance="8" page="0" chnl="0" letter="c"/>
        <char id="101" x="45" y="55" width="8" height="12" xoffset="0" yoffset="1" xadvance="8" page="0" chnl="0" letter="e"/>
        <char id="119" x="55" y="55" width="14" height="11" xoffset="0" yoffset="2" xadvance="13" page="0" chnl="0" letter="w"/>
        <char id="60" x="71" y="55" width="11" height="11" xoffset="1" yoffset="2" xadvance="11" page="0" chnl="0" letter="&lt;"/>
        <char id="62" x="84" y="55" width="11" height="11" xoffset="1" yoffset="2" xadvance="11" page="0" chnl="0" letter=">"/>
        <char id="43" x="97" y="55" width="11" height="11" xoffset="1" yoffset="2" xadvance="11" page="0" chnl="0" letter="+"/>
        <char id="120" x="110" y="55" width="9" height="11" xoffset="0" yoffset="2" xadvance="8" page="0" chnl="0" letter="x"/>
        <char id="118" x="121" y="55" width="8" height="11" xoffset="0" yoffset="2" xadvance="8" page="0" chnl="0" letter="v"/>
        <char id="122" x="131" y="55" width="7" height="11" xoffset="0" yoffset="2" xadvance="8" page="0" chnl="0" letter="z"/>
        <char id="58" x="140" y="55" width="4" height="11" xoffset="1" yoffset="2" xadvance="4" page="0" chnl="0" letter=":"/>
        <char id="109" x="146" y="55" width="12" height="10" xoffset="1" yoffset="3" xadvance="14" page="0" chnl="0" letter="m"/>
        <char id="110" x="160" y="55" width="9" height="10" xoffset="1" yoffset="3" xadvance="9" page="0" chnl="0" letter="n"/>
        <char id="117" x="171" y="55" width="9" height="10" xoffset="1" yoffset="3" xadvance="9" page="0" chnl="0" letter="u"/>
        <char id="114" x="182" y="55" width="7" height="10" xoffset="1" yoffset="3" xadvance="6" page="0" chnl="0" letter="r"/>
        <char id="61" x="191" y="55" width="11" height="8" xoffset="1" yoffset="4" xadvance="11" page="0" chnl="0" letter="="/>
        <char id="42" x="204" y="55" width="7" height="8" xoffset="0" yoffset="-1" xadvance="7" page="0" chnl="0" letter="*"/>
        <char id="94" x="213" y="55" width="9" height="7" xoffset="1" yoffset="-0" xadvance="11" page="0" chnl="0" letter="^"/>
        <char id="126" x="224" y="55" width="10" height="6" xoffset="1" yoffset="5" xadvance="11" page="0" chnl="0" letter="~"/>
        <char id="34" x="236" y="55" width="7" height="6" xoffset="1" yoffset="-0" xadvance="8" page="0" chnl="0" letter="&quot;"/>
        <char id="8220" x="245" y="55" width="7" height="6" xoffset="1" yoffset="-0" xadvance="8" page="0" chnl="0" letter="“"/>
        <char id="8221" x="2" y="69" width="7" height="6" xoffset="1" yoffset="-0" xadvance="8" page="0" chnl="0" letter="”"/>
        <char id="39" x="11" y="69" width="4" height="6" xoffset="1" yoffset="-0" xadvance="5" page="0" chnl="0" letter="'"/>
        <char id="44" x="17" y="69" width="4" height="6" xoffset="1" yoffset="10" xadvance="4" page="0" chnl="0" letter=","/>
        <char id="8217" x="23" y="69" width="4" height="6" xoffset="1" yoffset="-0" xadvance="5" page="0" chnl="0" letter="’"/>
        <char id="45" x="29" y="69" width="7" height="4" xoffset="1" yoffset="5" xadvance="7" page="0" chnl="0" letter="-"/>
        <char id="96" x="38" y="69" width="5" height="4" xoffset="-0" yoffset="-2" xadvance="4" page="0" chnl="0" letter="`"/>
        <char id="8212" x="45" y="69" width="18" height="3" xoffset="0" yoffset="6" xadvance="18" page="0" chnl="0" letter="—"/>
        <char id="8211" x="65" y="69" width="9" height="3" xoffset="0" yoffset="6" xadvance="9" page="0" chnl="0" letter="–"/>
        <char id="46" x="76" y="69" width="4" height="3" xoffset="1" yoffset="10" xadvance="4" page="0" chnl="0" letter="."/>
        <char id="95" x="82" y="69" width="9" height="1" xoffset="0" yoffset="14" xadvance="9" page="0" chnl="0" letter="_"/>
        <char id="32" x="93" y="69" width="0" height="0" xoffset="4" yoffset="33" xadvance="4" page="0" chnl="0" letter=" "/>
    </chars>
</font>