
<font>
    <info face="HelveticaNeueLTStd-MdCn" size="18" bold="0" italic="0" chasrset="" unicode="0" stretchH="100" smooth="1" aa="1" padding="0,0,0,0" spacing="2,2"/>
    <common lineHeight="21" base="13" scaleW="256" scaleH="128" pages="1" packed="0"/>
    <pages>
        <page id="0" file="HelvNeueLTDStd_67MediumCond_18.png"/>
    </pages>
    <chars count="107">
        <char id="200" x="2" y="3" width="9" height="18" xoffset="1" yoffset="-5" xadvance="9" page="0" chnl="0" letter="È"/>
        <char id="201" x="13" y="3" width="9" height="18" xoffset="1" yoffset="-5" xadvance="9" page="0" chnl="0" letter="É"/>
        <char id="123" x="24" y="3" width="5" height="18" xoffset="0" yoffset="-2" xadvance="5" page="0" chnl="0" letter="{"/>
        <char id="125" x="31" y="3" width="5" height="18" xoffset="0" yoffset="-2" xadvance="5" page="0" chnl="0" letter="}"/>
        <char id="91" x="38" y="3" width="5" height="18" xoffset="1" yoffset="-2" xadvance="5" page="0" chnl="0" letter="["/>
        <char id="93" x="45" y="3" width="5" height="18" xoffset="-0" yoffset="-2" xadvance="5" page="0" chnl="0" letter="]"/>
        <char id="41" x="52" y="3" width="5" height="18" xoffset="0" yoffset="-2" xadvance="5" page="0" chnl="0" letter=")"/>
        <char id="106" x="59" y="3" width="5" height="18" xoffset="-0" yoffset="-2" xadvance="4" page="0" chnl="0" letter="j"/>
        <char id="40" x="66" y="3" width="4" height="18" xoffset="1" yoffset="-2" xadvance="5" page="0" chnl="0" letter="("/>
        <char id="81" x="72" y="3" width="10" height="16" xoffset="1" yoffset="-2" xadvance="10" page="0" chnl="0" letter="Q"/>
        <char id="36" x="84" y="3" width="9" height="16" xoffset="0" yoffset="-1" xadvance="9" page="0" chnl="0" letter="$"/>
        <char id="64" x="95" y="3" width="14" height="15" xoffset="1" yoffset="-2" xadvance="14" page="0" chnl="0" letter="@"/>
        <char id="174" x="111" y="3" width="14" height="15" xoffset="1" yoffset="-2" xadvance="14" page="0" chnl="0" letter="®"/>
        <char id="79" x="127" y="3" width="10" height="15" xoffset="1" yoffset="-2" xadvance="10" page="0" chnl="0" letter="O"/>
        <char id="67" x="139" y="3" width="10" height="15" xoffset="1" yoffset="-2" xadvance="9" page="0" chnl="0" letter="C"/>
        <char id="38" x="151" y="3" width="10" height="15" xoffset="0" yoffset="-2" xadvance="10" page="0" chnl="0" letter="&amp;"/>
        <char id="83" x="163" y="3" width="10" height="15" xoffset="1" yoffset="-2" xadvance="9" page="0" chnl="0" letter="S"/>
        <char id="71" x="175" y="3" width="9" height="15" xoffset="1" yoffset="-2" xadvance="10" page="0" chnl="0" letter="G"/>
        <char id="98" x="186" y="3" width="9" height="15" xoffset="1" yoffset="-2" xadvance="9" page="0" chnl="0" letter="b"/>
        <char id="100" x="197" y="3" width="9" height="15" xoffset="1" yoffset="-2" xadvance="9" page="0" chnl="0" letter="d"/>
        <char id="112" x="208" y="3" width="9" height="15" xoffset="1" yoffset="1" xadvance="9" page="0" chnl="0" letter="p"/>
        <char id="113" x="219" y="3" width="9" height="15" xoffset="1" yoffset="1" xadvance="9" page="0" chnl="0" letter="q"/>
        <char id="85" x="230" y="3" width="8" height="15" xoffset="1" yoffset="-2" xadvance="10" page="0" chnl="0" letter="U"/>
        <char id="103" x="240" y="3" width="8" height="15" xoffset="1" yoffset="1" xadvance="9" page="0" chnl="0" letter="g"/>
        <char id="232" x="2" y="23" width="8" height="15" xoffset="1" yoffset="-2" xadvance="8" page="0" chnl="0" letter="è"/>
        <char id="233" x="12" y="23" width="8" height="15" xoffset="1" yoffset="-2" xadvance="8" page="0" chnl="0" letter="é"/>
        <char id="63" x="22" y="23" width="8" height="15" xoffset="1" yoffset="-2" xadvance="8" page="0" chnl="0" letter="?"/>
        <char id="74" x="32" y="23" width="8" height="15" xoffset="0" yoffset="-2" xadvance="8" page="0" chnl="0" letter="J"/>
        <char id="47" x="42" y="23" width="7" height="15" xoffset="-0" yoffset="-2" xadvance="5" page="0" chnl="0" letter="/"/>
        <char id="92" x="51" y="23" width="7" height="15" xoffset="-0" yoffset="-2" xadvance="5" page="0" chnl="0" letter="\"/>
        <char id="124" x="60" y="23" width="3" height="15" xoffset="1" yoffset="-2" xadvance="4" page="0" chnl="0" letter="|"/>
        <char id="35" x="65" y="23" width="10" height="14" xoffset="-0" yoffset="-1" xadvance="9" page="0" chnl="0" letter="#"/>
        <char id="50" x="77" y="23" width="9" height="14" xoffset="1" yoffset="-1" xadvance="9" page="0" chnl="0" letter="2"/>
        <char id="53" x="88" y="23" width="9" height="14" xoffset="1" yoffset="-1" xadvance="9" page="0" chnl="0" letter="5"/>
        <char id="55" x="99" y="23" width="9" height="14" xoffset="1" yoffset="-1" xadvance="9" page="0" chnl="0" letter="7"/>
        <char id="52" x="110" y="23" width="8" height="14" xoffset="0" yoffset="-1" xadvance="9" page="0" chnl="0" letter="4"/>
        <char id="49" x="120" y="23" width="6" height="14" xoffset="1" yoffset="-1" xadvance="9" page="0" chnl="0" letter="1"/>
        <char id="116" x="128" y="23" width="5" height="14" xoffset="0" yoffset="-1" xadvance="5" page="0" chnl="0" letter="t"/>

        <char id="87" x="135" y="22" width="15" height="13" xoffset="0" yoffset="-1" xadvance="13" page="0" chnl="0" letter="W"/>
        <char id="37" x="152" y="22" width="14" height="13" xoffset="1" yoffset="-1" xadvance="14" page="0" chnl="0" letter="%"/>
        <char id="77" x="168" y="22" width="11" height="13" xoffset="1" yoffset="-1" xadvance="13" page="0" chnl="0" letter="M"/>
        <char id="65" x="181" y="22" width="11" height="13" xoffset="-0" yoffset="-1" xadvance="9" page="0" chnl="0" letter="A"/>
        <char id="75" x="194" y="22" width="10" height="13" xoffset="1" yoffset="-1" xadvance="9" page="0" chnl="0" letter="K"/>
        <char id="78" x="206" y="22" width="10" height="13" xoffset="1" yoffset="-1" xadvance="10" page="0" chnl="0" letter="N"/>
        <char id="84" x="218" y="22" width="10" height="13" xoffset="0" yoffset="-1" xadvance="8" page="0" chnl="0" letter="T"/>
        <char id="121" x="230" y="22" width="9" height="13" xoffset="0" yoffset="2" xadvance="8" page="0" chnl="0" letter="y"/>
        <char id="89" x="241" y="22" width="9" height="13" xoffset="-0" yoffset="-1" xadvance="9" page="0" chnl="0" letter="Y"/>
        <char id="68" x="2" y="39" width="9" height="13" xoffset="1" yoffset="-1" xadvance="10" page="0" chnl="0" letter="D"/>
        <char id="88" x="13" y="39" width="9" height="13" xoffset="0" yoffset="-1" xadvance="9" page="0" chnl="0" letter="X"/>
        <char id="86" x="24" y="39" width="9" height="13" xoffset="-0" yoffset="-1" xadvance="9" page="0" chnl="0" letter="V"/>
        <char id="90" x="35" y="39" width="9" height="13" xoffset="0" yoffset="-1" xadvance="8" page="0" chnl="0" letter="Z"/>
        <char id="66" x="46" y="39" width="9" height="13" xoffset="1" yoffset="-1" xadvance="10" page="0" chnl="0" letter="B"/>
        <char id="82" x="57" y="39" width="9" height="13" xoffset="1" yoffset="-1" xadvance="10" page="0" chnl="0" letter="R"/>
        <char id="51" x="68" y="39" width="9" height="13" xoffset="1" yoffset="-1" xadvance="9" page="0" chnl="0" letter="3"/>
        <char id="54" x="79" y="39" width="9" height="13" xoffset="0" yoffset="-1" xadvance="9" page="0" chnl="0" letter="6"/>
        <char id="56" x="90" y="39" width="9" height="13" xoffset="0" yoffset="-1" xadvance="9" page="0" chnl="0" letter="8"/>
        <char id="57" x="101" y="39" width="9" height="13" xoffset="0" yoffset="-1" xadvance="9" page="0" chnl="0" letter="9"/>
        <char id="48" x="112" y="39" width="9" height="13" xoffset="1" yoffset="-1" xadvance="9" page="0" chnl="0" letter="0"/>
        <char id="69" x="123" y="39" width="9" height="13" xoffset="1" yoffset="-1" xadvance="9" page="0" chnl="0" letter="E"/>
        <char id="107" x="134" y="39" width="9" height="13" xoffset="1" yoffset="-1" xadvance="8" page="0" chnl="0" letter="k"/>
        <char id="72" x="145" y="39" width="8" height="13" xoffset="1" yoffset="-1" xadvance="10" page="0" chnl="0" letter="H"/>
        <char id="80" x="155" y="39" width="8" height="13" xoffset="1" yoffset="-1" xadvance="9" page="0" chnl="0" letter="P"/>
        <char id="76" x="165" y="39" width="8" height="13" xoffset="1" yoffset="-1" xadvance="8" page="0" chnl="0" letter="L"/>
        <char id="104" x="175" y="39" width="8" height="13" xoffset="1" yoffset="-1" xadvance="9" page="0" chnl="0" letter="h"/>
        <char id="70" x="185" y="39" width="7" height="13" xoffset="1" yoffset="-1" xadvance="8" page="0" chnl="0" letter="F"/>
        <char id="102" x="194" y="39" width="5" height="13" xoffset="0" yoffset="-1" xadvance="5" page="0" chnl="0" letter="f"/>
        <char id="73" x="201" y="39" width="4" height="13" xoffset="1" yoffset="-1" xadvance="4" page="0" chnl="0" letter="I"/>
        <char id="33" x="207" y="39" width="4" height="13" xoffset="1" yoffset="-1" xadvance="5" page="0" chnl="0" letter="!"/>
        <char id="105" x="213" y="39" width="2" height="13" xoffset="1" yoffset="-1" xadvance="4" page="0" chnl="0" letter="i"/>
        <char id="108" x="217" y="39" width="2" height="13" xoffset="1" yoffset="-1" xadvance="4" page="0" chnl="0" letter="l"/>

        <char id="97" x="221" y="40" width="8" height="12" xoffset="1" yoffset="1" xadvance="8" page="0" chnl="0" letter="a"/>
        <char id="99" x="231" y="40" width="8" height="12" xoffset="1" yoffset="1" xadvance="8" page="0" chnl="0" letter="c"/>
        <char id="101" x="241" y="40" width="8" height="12" xoffset="1" yoffset="1" xadvance="8" page="0" chnl="0" letter="e"/>
        <char id="111" x="2" y="55" width="8" height="12" xoffset="1" yoffset="1" xadvance="8" page="0" chnl="0" letter="o"/>
        <char id="115" x="12" y="55" width="8" height="12" xoffset="1" yoffset="1" xadvance="8" page="0" chnl="0" letter="s"/>
        <char id="59" x="22" y="55" width="3" height="12" xoffset="1" yoffset="4" xadvance="4" page="0" chnl="0" letter=";"/>
        <char id="119" x="27" y="55" width="12" height="11" xoffset="0" yoffset="2" xadvance="12" page="0" chnl="0" letter="w"/>
        <char id="60" x="41" y="55" width="11" height="11" xoffset="1" yoffset="2" xadvance="11" page="0" chnl="0" letter="&lt;"/>
        <char id="62" x="54" y="55" width="11" height="11" xoffset="1" yoffset="2" xadvance="11" page="0" chnl="0" letter=">"/>
        <char id="43" x="67" y="55" width="11" height="11" xoffset="1" yoffset="2" xadvance="11" page="0" chnl="0" letter="+"/>
        <char id="118" x="80" y="55" width="9" height="11" xoffset="0" yoffset="2" xadvance="8" page="0" chnl="0" letter="v"/>
        <char id="120" x="91" y="55" width="9" height="11" xoffset="0" yoffset="2" xadvance="8" page="0" chnl="0" letter="x"/>
        <char id="122" x="102" y="55" width="8" height="11" xoffset="0" yoffset="2" xadvance="7" page="0" chnl="0" letter="z"/>
        <char id="58" x="112" y="55" width="4" height="11" xoffset="1" yoffset="2" xadvance="4" page="0" chnl="0" letter=":"/>

        <char id="109" x="118" y="54" width="13" height="10" xoffset="1" yoffset="2" xadvance="13" page="0" chnl="0" letter="m"/>
        <char id="110" x="133" y="54" width="8" height="10" xoffset="1" yoffset="2" xadvance="9" page="0" chnl="0" letter="n"/>
        <char id="117" x="143" y="54" width="8" height="10" xoffset="1" yoffset="2" xadvance="9" page="0" chnl="0" letter="u"/>
        <char id="114" x="153" y="54" width="6" height="10" xoffset="1" yoffset="2" xadvance="6" page="0" chnl="0" letter="r"/>

        <char id="8482" x="161" y="55" width="17" height="9" xoffset="1" yoffset="-1" xadvance="18" page="0" chnl="0" letter="™"/>
        <char id="94" x="180" y="55" width="10" height="9" xoffset="1" yoffset="-1" xadvance="11" page="0" chnl="0" letter="^"/>
        <char id="8226" x="192" y="55" width="8" height="8" xoffset="1" yoffset="2" xadvance="9" page="0" chnl="0" letter="•"/>
        <char id="61" x="202" y="55" width="11" height="7" xoffset="1" yoffset="4" xadvance="11" page="0" chnl="0" letter="="/>
        <char id="34" x="215" y="55" width="5" height="7" xoffset="1" yoffset="-2" xadvance="8" page="0" chnl="0" letter="&quot;"/>
        <char id="39" x="222" y="55" width="3" height="7" xoffset="1" yoffset="-2" xadvance="4" page="0" chnl="0" letter="'"/>
        <char id="44" x="227" y="55" width="3" height="7" xoffset="1" yoffset="9" xadvance="4" page="0" chnl="0" letter=","/>
        <char id="42" x="232" y="55" width="7" height="6" xoffset="0" yoffset="-0" xadvance="7" page="0" chnl="0" letter="*"/>
        <char id="8220" x="241" y="55" width="7" height="6" xoffset="1" yoffset="-0" xadvance="8" page="0" chnl="0" letter="“"/>
        <char id="8221" x="2" y="69" width="7" height="6" xoffset="1" yoffset="-0" xadvance="8" page="0" chnl="0" letter="”"/>
        <char id="8217" x="11" y="69" width="3" height="6" xoffset="1" yoffset="-0" xadvance="4" page="0" chnl="0" letter="’"/>
        <char id="126" x="16" y="69" width="10" height="4" xoffset="1" yoffset="6" xadvance="11" page="0" chnl="0" letter="~"/>
        <char id="96" x="28" y="69" width="5" height="4" xoffset="-0" yoffset="-2" xadvance="4" page="0" chnl="0" letter="`"/>
        <char id="46" x="35" y="69" width="4" height="4" xoffset="1" yoffset="9" xadvance="4" page="0" chnl="0" letter="."/>
        <char id="8212" x="41" y="69" width="18" height="2" xoffset="0" yoffset="7" xadvance="18" page="0" chnl="0" letter="—"/>
        <char id="8211" x="61" y="69" width="9" height="2" xoffset="0" yoffset="7" xadvance="9" page="0" chnl="0" letter="–"/>
        <char id="45" x="72" y="69" width="6" height="2" xoffset="1" yoffset="7" xadvance="6" page="0" chnl="0" letter="-"/>
        <char id="95" x="80" y="69" width="9" height="1" xoffset="0" yoffset="14" xadvance="9" page="0" chnl="0" letter="_"/>
        <char id="32" x="91" y="69" width="0" height="0" xoffset="4" yoffset="33" xadvance="4" page="0" chnl="0" letter=" "/>
    </chars>
</font>