
<font>
    <info face="HelveticaNeueLTStd-Bd" size="18" bold="0" italic="0" chasrset="" unicode="0" stretchH="100" smooth="1" aa="1" padding="0,0,0,0" spacing="2,2"/>
    <common lineHeight="21" base="13" scaleW="256" scaleH="128" pages="1" packed="0"/>
    <pages>
        <page id="0" file="HelvNeueLTDStd_75Bold_18.png"/>
    </pages>
    <chars count="106">
        <char id="36" x="2" y="3" width="11" height="18" xoffset="-0" yoffset="-3" xadvance="10" page="0" chnl="0" letter="$"/>
        <char id="200" x="15" y="3" width="11" height="18" xoffset="1" yoffset="-5" xadvance="12" page="0" chnl="0" letter="È"/>
        <char id="201" x="28" y="3" width="11" height="18" xoffset="1" yoffset="-5" xadvance="12" page="0" chnl="0" letter="É"/>
        <char id="123" x="41" y="3" width="8" height="18" xoffset="-0" yoffset="-2" xadvance="6" page="0" chnl="0" letter="{"/>
        <char id="125" x="51" y="3" width="8" height="18" xoffset="0" yoffset="-2" xadvance="6" page="0" chnl="0" letter="}"/>
        <char id="40" x="61" y="3" width="6" height="18" xoffset="1" yoffset="-2" xadvance="5" page="0" chnl="0" letter="("/>
        <char id="41" x="69" y="3" width="6" height="18" xoffset="-0" yoffset="-2" xadvance="5" page="0" chnl="0" letter=")"/>
        <char id="106" x="77" y="3" width="6" height="18" xoffset="-0" yoffset="-2" xadvance="5" page="0" chnl="0" letter="j"/>
        <char id="91" x="85" y="3" width="5" height="18" xoffset="1" yoffset="-2" xadvance="6" page="0" chnl="0" letter="["/>
        <char id="93" x="92" y="3" width="5" height="18" xoffset="0" yoffset="-2" xadvance="6" page="0" chnl="0" letter="]"/>
        <char id="124" x="99" y="3" width="2" height="18" xoffset="1" yoffset="-1" xadvance="4" page="0" chnl="0" letter="|"/>
        <char id="81" x="103" y="3" width="14" height="16" xoffset="1" yoffset="-2" xadvance="14" page="0" chnl="0" letter="Q"/>
        <char id="37" x="119" y="3" width="17" height="15" xoffset="1" yoffset="-2" xadvance="18" page="0" chnl="0" letter="%"/>
        <char id="174" x="138" y="3" width="15" height="15" xoffset="0" yoffset="-2" xadvance="14" page="0" chnl="0" letter="®"/>
        <char id="79" x="155" y="3" width="14" height="15" xoffset="1" yoffset="-2" xadvance="14" page="0" chnl="0" letter="O"/>
        <char id="64" x="171" y="3" width="14" height="15" xoffset="1" yoffset="-2" xadvance="14" page="0" chnl="0" letter="@"/>
        <char id="67" x="187" y="3" width="13" height="15" xoffset="1" yoffset="-2" xadvance="13" page="0" chnl="0" letter="C"/>
        <char id="71" x="202" y="3" width="12" height="15" xoffset="1" yoffset="-2" xadvance="14" page="0" chnl="0" letter="G"/>
        <char id="38" x="216" y="3" width="12" height="15" xoffset="1" yoffset="-2" xadvance="12" page="0" chnl="0" letter="&amp;"/>
        <char id="83" x="230" y="3" width="12" height="15" xoffset="0" yoffset="-2" xadvance="12" page="0" chnl="0" letter="S"/>
        <char id="85" x="2" y="23" width="12" height="15" xoffset="1" yoffset="-2" xadvance="13" page="0" chnl="0" letter="U"/>
        <char id="98" x="16" y="23" width="11" height="15" xoffset="1" yoffset="-2" xadvance="11" page="0" chnl="0" letter="b"/>
        <char id="100" x="29" y="23" width="11" height="15" xoffset="1" yoffset="-2" xadvance="11" page="0" chnl="0" letter="d"/>
        <char id="103" x="42" y="22" width="11" height="15" xoffset="1" yoffset="1" xadvance="11" page="0" chnl="0" letter="g"/>
        <char id="51" x="55" y="23" width="11" height="15" xoffset="0" yoffset="-2" xadvance="10" page="0" chnl="0" letter="3"/>
        <char id="54" x="68" y="23" width="11" height="15" xoffset="0" yoffset="-2" xadvance="10" page="0" chnl="0" letter="6"/>
        <char id="56" x="81" y="23" width="11" height="15" xoffset="0" yoffset="-2" xadvance="10" page="0" chnl="0" letter="8"/>
        <char id="57" x="94" y="23" width="11" height="15" xoffset="0" yoffset="-2" xadvance="10" page="0" chnl="0" letter="9"/>
        <char id="48" x="107" y="23" width="11" height="15" xoffset="0" yoffset="-2" xadvance="10" page="0" chnl="0" letter="0"/>
        <char id="232" x="120" y="23" width="10" height="15" xoffset="1" yoffset="-2" xadvance="10" page="0" chnl="0" letter="è"/>
        <char id="233" x="132" y="23" width="10" height="15" xoffset="1" yoffset="-2" xadvance="10" page="0" chnl="0" letter="é"/>
        <char id="74" x="144" y="23" width="10" height="15" xoffset="0" yoffset="-2" xadvance="10" page="0" chnl="0" letter="J"/>
        <char id="63" x="156" y="23" width="10" height="15" xoffset="1" yoffset="-2" xadvance="10" page="0" chnl="0" letter="?"/>
        <char id="47" x="168" y="23" width="8" height="15" xoffset="-0" yoffset="-2" xadvance="7" page="0" chnl="0" letter="/"/>
        <char id="92" x="178" y="23" width="8" height="15" xoffset="-0" yoffset="-2" xadvance="7" page="0" chnl="0" letter="\"/>
        <char id="121" x="188" y="23" width="11" height="14" xoffset="-0" yoffset="2" xadvance="9" page="0" chnl="0" letter="y"/>
        <char id="52" x="201" y="23" width="11" height="14" xoffset="0" yoffset="-1" xadvance="10" page="0" chnl="0" letter="4"/>
        <char id="55" x="214" y="23" width="10" height="14" xoffset="1" yoffset="-1" xadvance="10" page="0" chnl="0" letter="7"/>
        <char id="35" x="226" y="23" width="9" height="14" xoffset="1" yoffset="-1" xadvance="10" page="0" chnl="0" letter="#"/>
        <char id="116" x="237" y="23" width="7" height="14" xoffset="0" yoffset="-1" xadvance="6" page="0" chnl="0" letter="t"/>
        <char id="49" x="246" y="23" width="7" height="14" xoffset="1" yoffset="-1" xadvance="10" page="0" chnl="0" letter="1"/>
        <char id="59" x="2" y="40" width="3" height="14" xoffset="1" yoffset="2" xadvance="5" page="0" chnl="0" letter=";"/>
        <char id="87" x="7" y="39" width="17" height="13" xoffset="0" yoffset="-1" xadvance="17" page="0" chnl="0" letter="W"/>
        <char id="77" x="26" y="39" width="14" height="13" xoffset="1" yoffset="-1" xadvance="16" page="0" chnl="0" letter="M"/>
        <char id="65" x="42" y="39" width="14" height="13" xoffset="-0" yoffset="-1" xadvance="12" page="0" chnl="0" letter="A"/>
        <char id="89" x="58" y="39" width="14" height="13" xoffset="-0" yoffset="-1" xadvance="12" page="0" chnl="0" letter="Y"/>
        <char id="88" x="74" y="39" width="14" height="13" xoffset="-0" yoffset="-1" xadvance="12" page="0" chnl="0" letter="X"/>
        <char id="68" x="90" y="39" width="13" height="13" xoffset="1" yoffset="-1" xadvance="13" page="0" chnl="0" letter="D"/>
        <char id="86" x="105" y="39" width="13" height="13" xoffset="-0" yoffset="-1" xadvance="11" page="0" chnl="0" letter="V"/>
        <char id="75" x="120" y="39" width="12" height="13" xoffset="1" yoffset="-1" xadvance="13" page="0" chnl="0" letter="K"/>
        <char id="84" x="134" y="39" width="12" height="13" xoffset="0" yoffset="-1" xadvance="11" page="0" chnl="0" letter="T"/>
        <char id="66" x="148" y="39" width="12" height="13" xoffset="1" yoffset="-1" xadvance="13" page="0" chnl="0" letter="B"/>
        <char id="80" x="162" y="39" width="12" height="13" xoffset="1" yoffset="-1" xadvance="12" page="0" chnl="0" letter="P"/>
        <char id="82" x="176" y="39" width="12" height="13" xoffset="1" yoffset="-1" xadvance="13" page="0" chnl="0" letter="R"/>
        <char id="50" x="190" y="39" width="11" height="13" xoffset="0" yoffset="-1" xadvance="10" page="0" chnl="0" letter="2"/>
        <char id="53" x="203" y="39" width="11" height="13" xoffset="0" yoffset="-1" xadvance="10" page="0" chnl="0" letter="5"/>
        <char id="72" x="216" y="39" width="11" height="13" xoffset="1" yoffset="-1" xadvance="13" page="0" chnl="0" letter="H"/>
        <char id="78" x="229" y="39" width="11" height="13" xoffset="1" yoffset="-1" xadvance="13" page="0" chnl="0" letter="N"/>
        <char id="90" x="242" y="39" width="11" height="13" xoffset="0" yoffset="-1" xadvance="12" page="0" chnl="0" letter="Z"/>
        <char id="70" x="2" y="55" width="11" height="13" xoffset="1" yoffset="-1" xadvance="11" page="0" chnl="0" letter="F"/>
        <char id="76" x="15" y="55" width="11" height="13" xoffset="1" yoffset="-1" xadvance="11" page="0" chnl="0" letter="L"/>
        <char id="112" x="28" y="55" width="11" height="13" xoffset="1" yoffset="2" xadvance="11" page="0" chnl="0" letter="p"/>
        <char id="113" x="41" y="55" width="11" height="13" xoffset="1" yoffset="2" xadvance="11" page="0" chnl="0" letter="q"/>
        <char id="69" x="54" y="55" width="11" height="13" xoffset="1" yoffset="-1" xadvance="12" page="0" chnl="0" letter="E"/>
        <char id="104" x="67" y="55" width="10" height="13" xoffset="1" yoffset="-1" xadvance="11" page="0" chnl="0" letter="h"/>
        <char id="107" x="79" y="55" width="10" height="13" xoffset="1" yoffset="-1" xadvance="10" page="0" chnl="0" letter="k"/>
        <char id="102" x="91" y="55" width="6" height="13" xoffset="0" yoffset="-1" xadvance="6" page="0" chnl="0" letter="f"/>
        <char id="105" x="99" y="55" width="4" height="13" xoffset="1" yoffset="-1" xadvance="5" page="0" chnl="0" letter="i"/>
        <char id="108" x="105" y="55" width="4" height="13" xoffset="1" yoffset="-1" xadvance="5" page="0" chnl="0" letter="l"/>
        <char id="73" x="111" y="55" width="3" height="13" xoffset="1" yoffset="-1" xadvance="5" page="0" chnl="0" letter="I"/>
        <char id="33" x="116" y="56" width="3" height="13" xoffset="1" yoffset="-0" xadvance="5" page="0" chnl="0" letter="!"/>
        <char id="119" x="121" y="56" width="16" height="11" xoffset="0" yoffset="2" xadvance="15" page="0" chnl="0" letter="w"/>
        <char id="109" x="139" y="56" width="16" height="11" xoffset="1" yoffset="2" xadvance="16" page="0" chnl="0" letter="m"/>
        <char id="60" x="157" y="56" width="11" height="11" xoffset="1" yoffset="2" xadvance="11" page="0" chnl="0" letter="&lt;"/>
        <char id="62" x="170" y="56" width="11" height="11" xoffset="1" yoffset="2" xadvance="11" page="0" chnl="0" letter=">"/>
        <char id="43" x="183" y="56" width="11" height="11" xoffset="1" yoffset="2" xadvance="11" page="0" chnl="0" letter="+"/>
        <char id="118" x="196" y="55" width="11" height="11" xoffset="0" yoffset="1" xadvance="9" page="0" chnl="0" letter="v"/>
        <char id="120" x="209" y="55" width="11" height="11" xoffset="0" yoffset="1" xadvance="10" page="0" chnl="0" letter="x"/>
        <char id="110" x="222" y="55" width="10" height="11" xoffset="1" yoffset="1" xadvance="11" page="0" chnl="0" letter="n"/>
        <char id="117" x="234" y="55" width="10" height="11" xoffset="1" yoffset="1" xadvance="11" page="0" chnl="0" letter="u"/>
        <char id="122" x="2" y="70" width="10" height="11" xoffset="0" yoffset="1" xadvance="9" page="0" chnl="0" letter="z"/>
        <char id="114" x="14" y="70" width="7" height="11" xoffset="1" yoffset="1" xadvance="7" page="0" chnl="0" letter="r"/>
        <char id="58" x="23" y="70" width="3" height="11" xoffset="1" yoffset="1" xadvance="5" page="0" chnl="0" letter=":"/>
        <char id="99" x="28" y="70" width="11" height="10" xoffset="1" yoffset="2" xadvance="10" page="0" chnl="0" letter="c"/>
        <char id="111" x="41" y="70" width="11" height="10" xoffset="1" yoffset="2" xadvance="11" page="0" chnl="0" letter="o"/>
        <char id="97" x="54" y="70" width="10" height="10" xoffset="1" yoffset="2" xadvance="10" page="0" chnl="0" letter="a"/>
        <char id="101" x="66" y="70" width="10" height="10" xoffset="1" yoffset="2" xadvance="10" page="0" chnl="0" letter="e"/>
        <char id="115" x="78" y="70" width="10" height="10" xoffset="1" yoffset="2" xadvance="10" page="0" chnl="0" letter="s"/>
        <char id="8482" x="90" y="71" width="17" height="9" xoffset="1" yoffset="-1" xadvance="18" page="0" chnl="0" letter="™"/>
        <char id="42" x="109" y="71" width="8" height="8" xoffset="0" yoffset="-2" xadvance="7" page="0" chnl="0" letter="*"/>
        <char id="94" x="119" y="71" width="10" height="7" xoffset="1" yoffset="-0" xadvance="11" page="0" chnl="0" letter="^"/>
        <char id="61" x="131" y="71" width="11" height="6" xoffset="1" yoffset="5" xadvance="11" page="0" chnl="0" letter="="/>
        <char id="126" x="144" y="71" width="10" height="6" xoffset="1" yoffset="5" xadvance="11" page="0" chnl="0" letter="~"/>
        <char id="8220" x="156" y="71" width="8" height="6" xoffset="1" yoffset="-0" xadvance="8" page="0" chnl="0" letter="“"/>
        <char id="8221" x="166" y="71" width="8" height="6" xoffset="1" yoffset="-0" xadvance="8" page="0" chnl="0" letter="”"/>
        <char id="34" x="176" y="71" width="7" height="6" xoffset="2" yoffset="-0" xadvance="8" page="0" chnl="0" letter="&quot;"/>
        <char id="44" x="185" y="71" width="3" height="6" xoffset="1" yoffset="10" xadvance="5" page="0" chnl="0" letter=","/>
        <char id="8217" x="190" y="71" width="3" height="6" xoffset="1" yoffset="-0" xadvance="5" page="0" chnl="0" letter="’"/>
        <char id="39" x="195" y="71" width="2" height="6" xoffset="2" yoffset="-0" xadvance="5" page="0" chnl="0" letter="'"/>
        <char id="8212" x="199" y="71" width="15" height="4" xoffset="2" yoffset="5" xadvance="18" page="0" chnl="0" letter="—"/>
        <char id="8211" x="216" y="71" width="9" height="4" xoffset="0" yoffset="5" xadvance="9" page="0" chnl="0" letter="–"/>
        <char id="45" x="227" y="71" width="7" height="4" xoffset="1" yoffset="5" xadvance="7" page="0" chnl="0" letter="-"/>
        <char id="96" x="236" y="71" width="6" height="4" xoffset="-1" yoffset="-1" xadvance="5" page="0" chnl="0" letter="`"/>
        <char id="46" x="244" y="71" width="3" height="3" xoffset="1" yoffset="10" xadvance="5" page="0" chnl="0" letter="."/>
        <char id="95" x="2" y="84" width="9" height="1" xoffset="0" yoffset="14" xadvance="9" page="0" chnl="0" letter="_"/>
        <char id="32" x="13" y="84" width="0" height="0" xoffset="5" yoffset="33" xadvance="5" page="0" chnl="0" letter=" "/>
    </chars>
</font>